Counter/counter.vcd
$date
	Sun Nov 23 21:14:50 2025
$end
$version
	Icarus Verilog
$end
$timescale
	1ps
$end
$scope module tb_counter $end
$var wire 16 ! count_val [15:0] $end
$var reg 1 " clk $end
$var reg 1 # count_reset $end
$var reg 1 $ en $end
$var reg 16 % period [15:0] $end
$var reg 8 & prescale [7:0] $end
$var reg 16 ' prev [15:0] $end
$var reg 1 ( rst_n $end
$var reg 16 ) saved_val [15:0] $end
$var reg 1 * upnotdown $end
$var integer 32 + cycles [31:0] $end
$scope module dut $end
$var wire 1 " clk $end
$var wire 1 # count_reset $end
$var wire 1 $ en $end
$var wire 16 , period [15:0] $end
$var wire 8 - prescale [7:0] $end
$var wire 1 ( rst_n $end
$var wire 1 * upnotdown $end
$var reg 16 . count_val [15:0] $end
$var reg 8 / prescale_cnt [7:0] $end
$upscope $end
$scope task assert_equal_16 $end
$var reg 16 0 a [15:0] $end
$var reg 16 1 b [15:0] $end
$upscope $end
$scope task assert_equal_int $end
$var integer 32 2 a [31:0] $end
$var integer 32 3 b [31:0] $end
$upscope $end
$scope task measure_cycles_until_change $end
$var reg 16 4 start_val [15:0] $end
$var integer 32 5 k [31:0] $end
$var integer 32 6 out_cycles [31:0] $end
$var integer 32 7 timeout [31:0] $end
$upscope $end
$scope task wait_clocks $end
$var integer 32 8 j [31:0] $end
$var integer 32 9 n [31:0] $end
$upscope $end
$upscope $end
$enddefinitions $end
$comment Show the parameter values. $end
$dumpall
$end
#0
$dumpvars
b11 9
b0 8
bx 7
bx 6
bx 5
bx 4
bx 3
bx 2
bx 1
bx 0
b0 /
b0 .
b0 -
b1010 ,
bx +
1*
bx )
0(
bx '
b0 &
b1010 %
0$
0#
0"
b0 !
$end
#5000
b1 8
1"
#10000
0"
#15000
b10 8
1"
#20000
0"
#25000
b10 9
1(
b0 8
1"
#30000
0"
#35000
b1 8
1"
#40000
0"
#45000
b1 !
b1 .
1$
b0 1
b0 0
b10 8
1"
#50000
0"
#55000
b10 !
b10 .
1"
#60000
0"
#65000
b11 !
b11 .
1"
#70000
0"
#75000
b100 !
b100 .
1"
#80000
0"
#85000
b101 !
b101 .
1"
#90000
0"
#95000
b110 !
b110 .
1"
#100000
0"
#105000
b111 !
b111 .
1"
#110000
0"
#115000
b1000 !
b1000 .
1"
#120000
0"
#125000
b1001 !
b1001 .
1"
#130000
0"
#135000
b1010 !
b1010 .
1"
#140000
0"
#145000
b0 !
b0 .
1"
#150000
0"
#155000
b1010 !
b1010 .
0*
1"
#160000
0"
#165000
b1001 !
b1001 .
b1010 1
b1010 0
1"
#170000
0"
#175000
b1000 !
b1000 .
1"
#180000
0"
#185000
b111 !
b111 .
1"
#190000
0"
#195000
b110 !
b110 .
1"
#200000
0"
#205000
b101 !
b101 .
1"
#210000
0"
#215000
b100 !
b100 .
1"
#220000
0"
#225000
b11 !
b11 .
1"
#230000
0"
#235000
b10 !
b10 .
1"
#240000
0"
#245000
b1 !
b1 .
1"
#250000
0"
#255000
b0 !
b0 .
1"
#260000
0"
#265000
b1010 !
b1010 .
1"
#270000
0"
#275000
b0 !
b0 .
1#
b11 &
b11 -
1"
#280000
0"
#285000
b1 /
b0 5
b0 6
b0 4
b1111101000 7
1*
0#
1"
#290000
0"
#295000
b10 /
b1 5
b1 6
1"
#300000
0"
#305000
b11 /
b10 5
b10 6
1"
#310000
0"
#315000
b1 !
b1 .
b0 /
b11 5
b11 6
1"
#320000
0"
#325000
b1 /
b0 5
b1 4
b100 3
b100 2
b100 +
b0 6
1"
#330000
0"
#335000
b10 /
b1 5
b1 6
1"
#340000
0"
#345000
b11 /
b10 5
b10 6
1"
#350000
0"
#355000
b10 !
b10 .
b0 /
b11 5
b11 6
1"
#360000
0"
#365000
b0 8
b1010 9
b10 )
0$
b100 6
1"
#370000
0"
#375000
b1 8
1"
#380000
0"
#385000
b10 8
1"
#390000
0"
#395000
b11 8
1"
#400000
0"
#405000
b100 8
1"
#410000
0"
#415000
b101 8
1"
#420000
0"
#425000
b110 8
1"
#430000
0"
#435000
b111 8
1"
#440000
0"
#445000
b1000 8
1"
#450000
0"
#455000
b1001 8
1"
#460000
0"
#465000
b1 /
b10 '
1$
b10 1
b10 0
b1010 8
1"
#470000
0"
#475000
b10 /
1"
#480000
0"
#485000
b11 /
1"
#490000
0"
#495000
b11 !
b11 .
b0 /
1"
#500000
0"
#505000
b0 !
b0 .
1#
b11 1
b11 0
1"
#510000
0"
#515000
b1 /
0#
1"
#520000
0"
#525000
b0 /
1#
b0 %
b0 ,
b0 1
b0 0
1"
#530000
0"
#535000
b0 8
b11110 9
b0 &
b0 -
0#
1"
#540000
0"
#545000
b1 8
1"
#550000
0"
#555000
b10 8
1"
#560000
0"
#565000
b11 8
1"
#570000
0"
#575000
b100 8
1"
#580000
0"
#585000
b101 8
1"
#590000
0"
#595000
b110 8
1"
#600000
0"
#605000
b111 8
1"
#610000
0"
#615000
b1000 8
1"
#620000
0"
#625000
b1001 8
1"
#630000
0"
#635000
b1010 8
1"
#640000
0"
#645000
b1011 8
1"
#650000
0"
#655000
b1100 8
1"
#660000
0"
#665000
b1101 8
1"
#670000
0"
#675000
b1110 8
1"
#680000
0"
#685000
b1111 8
1"
#690000
0"
#695000
b10000 8
1"
#700000
0"
#705000
b10001 8
1"
#710000
0"
#715000
b10010 8
1"
#720000
0"
#725000
b10011 8
1"
#730000
0"
#735000
b10100 8
1"
#740000
0"
#745000
b10101 8
1"
#750000
0"
#755000
b10110 8
1"
#760000
0"
#765000
b10111 8
1"
#770000
0"
#775000
b11000 8
1"
#780000
0"
#785000
b11001 8
1"
#790000
0"
#795000
b11010 8
1"
#800000
0"
#805000
b11011 8
1"
#810000
0"
#815000
b11100 8
1"
#820000
0"
#825000
b11101 8
1"
#830000
0"
#835000
1#
b10 &
b10 -
b10100 %
b10100 ,
b11110 8
1"
#840000
0"
#845000
b1 /
b0 '
0#
1"
#850000
0"
#855000
b10 /
1"
#860000
0"
#865000
b1 !
b1 .
b0 /
1"
#870000
0"
#875000
b1 /
b1 '
0*
b1 )
1"
#880000
0"
#885000
b10 /
1"
#890000
0"
#895000
b0 !
b0 .
b0 /
1"
#900000
0"
#905000
1#
b1000 &
b1000 -
1"
#910000
0"
#915000
b1 /
b0 5
b0 6
b0 4
b1001110001000 7
1*
0#
1"
#920000
0"
#925000
b10 /
b1 5
b1 6
1"
#930000
0"
#935000
b11 /
b10 5
b10 6
1"
#940000
0"
#945000
b100 /
b11 5
b11 6
1"
#950000
0"
#955000
b101 /
b100 5
b100 6
1"
#960000
0"
#965000
b110 /
b101 5
b101 6
1"
#970000
0"
#975000
b111 /
b110 5
b110 6
1"
#980000
0"
#985000
b1000 /
b111 5
b111 6
1"
#990000
0"
#995000
b1 !
b1 .
b0 /
b1000 5
b1000 6
1"
#1000000
0"
#1005000
b1 /
b1001 3
b1001 2
b1001 +
b1001 6
1"
